\relax 
\ifx\hyper@anchor\@undefined
\global \let \oldcontentsline\contentsline
\gdef \contentsline#1#2#3#4{\oldcontentsline{#1}{#2}{#3}}
\global \let \oldnewlabel\newlabel
\gdef \newlabel#1#2{\newlabelxx{#1}#2}
\gdef \newlabelxx#1#2#3#4#5#6{\oldnewlabel{#1}{{#2}{#3}}}
\AtEndDocument{\let \contentsline\oldcontentsline
\let \newlabel\oldnewlabel}
\else
\global \let \hyper@last\relax 
\fi

\@writefile{toc}{\contentsline {section}{\numberline {1}Introduction}{5}{section.1}}
\@writefile{toc}{\contentsline {subsection}{\numberline {1.1}Scalar adaptation library in hip}{5}{subsection.1.1}}
\@writefile{toc}{\contentsline {subsection}{\numberline {1.2}Sequential refinement algorithm}{5}{subsection.1.2}}
\@writefile{toc}{\contentsline {section}{\numberline {2}Data-structures}{6}{section.2}}
\@writefile{toc}{\contentsline {subsection}{\numberline {2.1}Unstructured grids}{6}{subsection.2.1}}
\@writefile{toc}{\contentsline {subsection}{\numberline {2.2}Periodic vertex pairs}{8}{subsection.2.2}}
\@writefile{toc}{\contentsline {subsection}{\numberline {2.3}Linked lists of entities: llEnt}{8}{subsection.2.3}}
\@writefile{toc}{\contentsline {section}{\numberline {3}Refinement}{8}{section.3}}
\@writefile{toc}{\contentsline {subsection}{\numberline {3.1}Reftype}{8}{subsection.3.1}}
\@writefile{toc}{\contentsline {subsection}{\numberline {3.2}Adaptive edge}{9}{subsection.3.2}}
\@writefile{toc}{\contentsline {subsection}{\numberline {3.3}Periodic adapted edges}{9}{subsection.3.3}}
\@writefile{toc}{\contentsline {subsection}{\numberline {3.4}Allocation}{9}{subsection.3.4}}
\@writefile{toc}{\contentsline {section}{\numberline {4}Parallelisation}{9}{section.4}}
\@writefile{toc}{\contentsline {subsection}{\numberline {4.1}Questions}{9}{subsection.4.1}}
